{
  "name": "exe:video_capture_unittests",
  "display_name": "Video Capture Unittests",
  "interface_provider_specs": {
    "service_manager:connector": {
      "requires": {
        "service:video_capture": [ "tests" ]
      }
    }
  }
}
