{
  "name": "exe:service_manager_unittest_driver",
  "display_name": "Service Manager Unittest: Driver",
  "interface_provider_specs": {
    "service_manager:connector": {
      "provides": {
        "service_manager_unittest:driver": [
          "service_manager::test::mojom::Driver"
        ]
      },
      "requires": {
        "exe:service_manager_unittest_target": [ ],
        "service:service_manager": [ "service_manager:client_process" ]
      }
    }
  }
}
